Process Seurat Object
…
To save the variance info of all the genes in a csv file.

tmp_hvf <-HVFInfo(seuratObj)
tmp_hvf$Symbol <- rownames(tmp_hvf)
write.csv(tmp_hvf, file = "HVF_info.csv",row.names = FALSE)

CellCycle

Next we will check

library(readr)
cell_cycle_genes <- read_csv(system.file("extdata", "cell_cycle_genes.csv", package = "scpackages"))
cell_cycle_genes

## # A tibble: 542 x 5
##    Symbol  SubPhase source  Phase alternative
##    <chr>   <chr>    <chr>   <chr> <chr>      
##  1 Acd     G1/S     Macosko S     <NA>       
##  2 Acyp1   G1/S     Macosko S     <NA>       
##  3 Adamts1 G1/S     Macosko S     <NA>       
##  4 Ankrd10 G1/S     Macosko S     <NA>       
##  5 Apex2   G1/S     Macosko S     <NA>       
##  6 Arglu1  G1/S     Macosko S     <NA>       
##  7 Atad2   G1/S     Macosko S     <NA>       
##  8 Bard1   G1/S     Macosko S     <NA>       
##  9 Brd7    G1/S     Macosko S     <NA>       
## 10 Rsrp1   G1/S     Macosko S     C1orf63    
## #  with 532 more rows
…
